	name	attacken	rh_def	sc_def	wh_def	exp	desc	wk	abprall_sc	mittel_sc	effective_sc	art
	scoop	kulleraugen rumkugeln	5	2	2	10	Erinnert etwas an ein… was ist das für ein Ding?	8	1 2 9 10 11 12 16 22 26 30	3 4 6 8 13 17 20 24 25 29	5 7 14 15 18 19 21 23 27 28	data/mob_art/scoop.txt
	book	novellenzauber lesung	5	6	6	20	Lesen auf eigene Gefahr	9	1 2 7 11 15 18 23 25 29 30	3 8 9 10 12 13 16 17 20 24 	4 5 6 14 19 21 22 26 27 28 	data/mob_art/book.txt
	wine	auslaufen gratisprobe	8	4	5	30	Wine – mal ab-, mal ausgelaufen	10	4 5 6 7 12 15 16 18 22 30	1 3 9 10 11 13 19 20 23 24	2 8 14 17 21 25 26 27 28 29	data/mob_art/wine.txt
	nabu	verdammniszauber nachrichten	10	8	12	40	Königlicher Berater außerhalb der Dienstzeiten	25	4 7 8 9 15 18 27 28 29 30	1 2 5 6 11 12 16 17 20 21	3 10 13 14 19 22 23 24 25 26 	data/mob_art/nabu.txt
	macey	wumme ausholen	18	13	18	40	Finally we feet mace to mace!	21	7 8 16 17 20 21 22 26 29 30 	4 3 10 11 12 13 19 23 24 25 	1 2 5 6 9 14 15 18 27 28 	data/mob_art/macey.txt
	clouds	giftgas niederschlag	15	13	21	25	Schwebt auf Wolke 7!	22	2 3 9 15 18 22 26 27 28 30 	4 5 6 12 29 21 23 24 25 29 	1 7 8 10 11 12 13 14 16 17	data/mob_art/clouds.txt
	winged_scoop	sturzflug gegenwind	17	5	21	30	Erinnert etwas an einen Scoop.	20	1 2 9 10 11 12 16 22 26 30	3 4 6 8 13 17 20 24 25 29	5 7 14 15 18 19 21 23 27 28	data/mob_art/winged_scoop.txt
	marduk	inferno gottfunken	20	20	30	100	mitsamt seinem Haustierdrachen Rex	50	7 8 9 10 19 22 23 25 28 30	3 5 6 15 16 17 20 21 24 29	1 2 4 11 12 13 14 18 26 27	data/mob_art/marduk.txt
